Food Finder
…
## new dataframe for logistic analysis 

food_events1 <- event_df %>% select(-snack, -meal, -foodyn, -Leadership, -ODI) 

multianalysis <- left_join(statistics, food_events1, by="ID") 
multianalysis

## # A tibble: 270 x 16
##       ID TimeStart foodynfactor preten tentotwelve twelvetotwo twotofour
##    <int> <time>    <fct>         <dbl>       <dbl>       <dbl>     <dbl>
##  1     1 17:30     0                 0           0           0         0
##  2     2 17:00     0                 0           0           0         0
##  3     3 13:00     0                 0           0           1         0
##  4     4 17:30     0                 0           0           0         0
##  5     5 13:00     0                 0           0           1         0
##  6     6 12:00     0                 0           0           1         0
##  7     7 13:00     0                 0           0           1         0
##  8     8 17:00     0                 0           0           0         0
##  9     9 10:00     0                 0           1           0         0
## 10    10 16:00     0                 0           0           0         0
## # ... with 260 more rows, and 9 more variables: fourtosix <dbl>,
## #   sixtoeight <dbl>, aftereight <dbl>, Location <chr>, Kresge <dbl>,
## #   Countway <dbl>, FXB <dbl>, PHOffcampus <dbl>, OtherHSPH <dbl>

food_events1

## # A tibble: 270 x 7
##       ID Location              Kresge Countway   FXB PHOffcampus OtherHSPH
##    <int> <chr>                  <dbl>    <dbl> <dbl>       <dbl>     <dbl>
##  1     1 Countway                   0        1     0           0         0
##  2     2 Countway                   0        1     0           0         0
##  3     3 Kresge LL6                 1        0     0           0         0
##  4     4 Kresge 202B                1        0     0           0         0
##  5     5 Kresge Room 202B           1        0     0           0         0
##  6     6 Leadership Studio/on      0        0     0           0         1
##  7     7 Kresge 200                 1        0     0           0         0
##  8     8 Kresge Cafeteria           1        0     0           0         0
##  9     9 Building 1, Room 1208      0        0     0           1         0
## 10    10 Countway                   0        1     0           0         0
## # ... with 260 more rows
…
